{
    "data": {
        "Half": {
            "1": {
                "EventData": [
                    {
                        "player_id": 23367,
                        "time": 4,
                        "type": "Hasball",
                        "type_id": 1
                    },
                    {
                        "player_id": 23366,
                        "time": 14,
                        "type": "Hasball",
                        "type_id": 1
                    }
                ],
                "PositionData": [
                    {
                        "players": [
                            {
                                "id": 23371,
                                "js": 1,
                                "type": 3,
                                "x": 102.84999999999999,
                                "y": 34.399999999999999
                            },
                            {
                                "id": 23291,
                                "js": 2,
                                "type": 0,
                                "x": 73.890000000000001,
                                "y": 39.909999999999997
                            },
                            {
                                "id": 23375,
                                "js": 5,
                                "type": 0,
                                "x": 62.490000000000002,
                                "y": 31.73
                            },
                            {
                                "id": 23340,
                                "js": 7,
                                "type": 0,
                                "x": 52.68,
                                "y": 58.409999999999997
                            },
                            {
                                "id": 23367,
                                "js": 9,
                                "type": 0,
                                "x": 52.619999999999997,
                                "y": 33.890000000000001
                            },
                            {
                                "id": 23385,
                                "js": 11,
                                "type": 0,
                                "x": 53.43,
                                "y": 17.379999999999999
                            },
                            {
                                "id": 23383,
                                "js": 77,
                                "type": 0,
                                "x": 52.57,
                                "y": 1.76
                            },
                            {
                                "id": 23366,
                                "js": 16,
                                "type": 0,
                                "x": 52.479999999999997,
                                "y": 31.829999999999998
                            },
                            {
                                "id": 23359,
                                "js": 22,
                                "type": 0,
                                "x": 72.870000000000005,
                                "y": 26.41
                            },
                            {
                                "id": 23369,
                                "js": 88,
                                "type": 0,
                                "x": 63.619999999999997,
                                "y": 62.950000000000003
                            },
                            {
                                "id": 23354,
                                "js": 25,
                                "type": 0,
                                "x": 63.609999999999999,
                                "y": 38.829999999999998
                            },
                            {
                                "id": 23244,
                                "js": 67,
                                "type": 4,
                                "x": 5.9699999999999998,
                                "y": 33.109999999999999
                            },
                            {
                                "id": 23357,
                                "js": 6,
                                "type": 1,
                                "x": 40.140000000000001,
                                "y": 31.510000000000002
                            },
                            {
                                "id": 23362,
                                "js": 8,
                                "type": 1,
                                "x": 44.009999999999998,
                                "y": 38.07
                            },
                            {
                                "id": 23287,
                                "js": 11,
                                "type": 1,
                                "x": 52.43,
                                "y": 42.979999999999997
                            },
                            {
                                "id": 23260,
                                "js": 13,
                                "type": 1,
                                "x": 36.539999999999999,
                                "y": 11.73
                            },
                            {
                                "id": 23252,
                                "js": 17,
                                "type": 1,
                                "x": 52.700000000000003,
                                "y": 16.879999999999999
                            },
                            {
                                "id": 23355,
                                "js": 3,
                                "type": 1,
                                "x": 42.520000000000003,
                                "y": 24.920000000000002
                            },
                            {
                                "id": 23256,
                                "js": 20,
                                "type": 1,
                                "x": 46.07,
                                "y": 56.289999999999999
                            },
                            {
                                "id": 23356,
                                "js": 21,
                                "type": 1,
                                "x": 33.729999999999997,
                                "y": 36.420000000000002
                            },
                            {
                                "id": 23360,
                                "js": 27,
                                "type": 1,
                                "x": 35.979999999999997,
                                "y": 48.479999999999997
                            },
                            {
                                "id": 23349,
                                "js": 90,
                                "type": 2,
                                "x": 56.960000000000001,
                                "y": 42.289999999999999
                            }
                        ],
                        "val": 0
                    },
                    {
                        "players": [
                            {
                                "id": 23371,
                                "js": 1,
                                "type": 3,
                                "x": 103.02,
                                "y": 34.280000000000001
                            },
                            {
                                "id": 23291,
                                "js": 2,
                                "type": 0,
                                "x": 73.980000000000004,
                                "y": 40.100000000000001
                            },
                            {
                                "id": 23375,
                                "js": 5,
                                "type": 0,
                                "x": 62.530000000000001,
                                "y": 31.649999999999999
                            },
                            {
                                "id": 23340,
                                "js": 7,
                                "type": 0,
                                "x": 52.710000000000001,
                                "y": 58.549999999999997
                            },
                            {
                                "id": 23367,
                                "js": 9,
                                "type": 0,
                                "x": 52.43,
                                "y": 33.799999999999997
                            },
                            {
                                "id": 23385,
                                "js": 11,
                                "type": 0,
                                "x": 53.43,
                                "y": 17.390000000000001
                            },
                            {
                                "id": 23383,
                                "js": 77,
                                "type": 0,
                                "x": 52.329999999999998,
                                "y": 1.6899999999999999
                            },
                            {
                                "id": 23366,
                                "js": 16,
                                "type": 0,
                                "x": 52.310000000000002,
                                "y": 31.949999999999999
                            },
                            {
                                "id": 23359,
                                "js": 22,
                                "type": 0,
                                "x": 72.989999999999995,
                                "y": 26.109999999999999
                            },
                            {
                                "id": 23369,
                                "js": 88,
                                "type": 0,
                                "x": 63.810000000000002,
                                "y": 62.939999999999998
                            },
                            {
                                "id": 23354,
                                "js": 25,
                                "type": 0,
                                "x": 63.619999999999997,
                                "y": 38.780000000000001
                            },
                            {
                                "id": 23244,
                                "js": 67,
                                "type": 4,
                                "x": 5.9800000000000004,
                                "y": 33.119999999999997
                            },
                            {
                                "id": 23357,
                                "js": 6,
                                "type": 1,
                                "x": 40.189999999999998,
                                "y": 31.469999999999999
                            },
                            {
                                "id": 23362,
                                "js": 8,
                                "type": 1,
                                "x": 44.079999999999998,
                                "y": 38.079999999999998
                            },
                            {
                                "id": 23287,
                                "js": 11,
                                "type": 1,
                                "x": 52.549999999999997,
                                "y": 42.75
                            },
                            {
                                "id": 23260,
                                "js": 13,
                                "type": 1,
                                "x": 36.539999999999999,
                                "y": 11.75
                            },
                            {
                                "id": 23252,
                                "js": 17,
                                "type": 1,
                                "x": 51.590000000000003,
                                "y": 16.579999999999998
                            },
                            {
                                "id": 23355,
                                "js": 3,
                                "type": 1,
                                "x": 42.689999999999998,
                                "y": 25.059999999999999
                            },
                            {
                                "id": 23256,
                                "js": 20,
                                "type": 1,
                                "x": 45.960000000000001,
                                "y": 56.18
                            },
                            {
                                "id": 23356,
                                "js": 21,
                                "type": 1,
                                "x": 33.759999999999998,
                                "y": 36.390000000000001
                            },
                            {
                                "id": 23386,
                                "js": 26,
                                "type": 1,
                                "x": 31.77,
                                "y": 28.129999999999999
                            },
                            {
                                "id": 23360,
                                "js": 27,
                                "type": 1,
                                "x": 35.979999999999997,
                                "y": 48.630000000000003
                            },
                            {
                                "id": 23349,
                                "js": 90,
                                "type": 2,
                                "x": 56.920000000000002,
                                "y": 42.359999999999999
                            }
                        ],
                        "val": 2
                    }
                ]
            },
            "2": {
                "EventData": [
                    {
                        "player_id": 24026,
                        "time": 4,
                        "type": "Offside",
                        "type_id": 8
                    },
                    {
                        "player_id": 23919,
                        "time": 14,
                        "type": "Hasball",
                        "type_id": 1
                    }
                ],
                "PositionData": [
                    {
                        "players": [
                            {
                                "id": 24029,
                                "js": 1,
                                "type": 3,
                                "x": 4.7400000000000002,
                                "y": 33.359999999999999
                            },
                            {
                                "id": 23983,
                                "js": 2,
                                "type": 0,
                                "x": 32.329999999999998,
                                "y": 23.84
                            },
                            {
                                "id": 23909,
                                "js": 5,
                                "type": 0,
                                "x": 46.439999999999998,
                                "y": 24.93
                            },
                            {
                                "id": 23999,
                                "js": 7,
                                "type": 0,
                                "x": 41.170000000000002,
                                "y": 10.48
                            },
                            {
                                "id": 24026,
                                "js": 9,
                                "type": 0,
                                "x": 59.380000000000003,
                                "y": 27.48
                            },
                            {
                                "id": 24027,
                                "js": 77,
                                "type": 0,
                                "x": 35.340000000000003,
                                "y": 57.020000000000003
                            },
                            {
                                "id": 23985,
                                "js": 16,
                                "type": 0,
                                "x": 55.539999999999999,
                                "y": 36.82
                            },
                            {
                                "id": 23922,
                                "js": 22,
                                "type": 0,
                                "x": 32.829999999999998,
                                "y": 35.590000000000003
                            },
                            {
                                "id": 23921,
                                "js": 88,
                                "type": 0,
                                "x": 51.450000000000003,
                                "y": 11.449999999999999
                            },
                            {
                                "id": 23730,
                                "js": 25,
                                "type": 0,
                                "x": 45.75,
                                "y": 34.43
                            },
                            {
                                "id": 24036,
                                "js": 29,
                                "type": 0,
                                "x": 56.75,
                                "y": 51.049999999999997
                            },
                            {
                                "id": 23920,
                                "js": 3,
                                "type": 1,
                                "x": 64.900000000000006,
                                "y": 30.699999999999999
                            },
                            {
                                "id": 24040,
                                "js": 6,
                                "type": 1,
                                "x": 54.32,
                                "y": 24.289999999999999
                            },
                            {
                                "id": 23927,
                                "js": 8,
                                "type": 1,
                                "x": 47.479999999999997,
                                "y": 31.940000000000001
                            },
                            {
                                "id": 23919,
                                "js": 11,
                                "type": 1,
                                "x": 48.5,
                                "y": 40.659999999999997
                            },
                            {
                                "id": 24033,
                                "js": 13,
                                "type": 1,
                                "x": 64.609999999999999,
                                "y": 56.219999999999999
                            },
                            {
                                "id": 23990,
                                "js": 17,
                                "type": 1,
                                "x": 49.640000000000001,
                                "y": 64.340000000000003
                            },
                            {
                                "id": 24007,
                                "js": 67,
                                "type": 4,
                                "x": 96.069999999999993,
                                "y": 32.509999999999998
                            },
                            {
                                "id": 23932,
                                "js": 20,
                                "type": 1,
                                "x": 52.210000000000001,
                                "y": 7.29
                            },
                            {
                                "id": 24045,
                                "js": 21,
                                "type": 1,
                                "x": 71.180000000000007,
                                "y": 30.289999999999999
                            },
                            {
                                "id": 24038,
                                "js": 26,
                                "type": 1,
                                "x": 70.939999999999998,
                                "y": 42.490000000000002
                            },
                            {
                                "id": 23976,
                                "js": 27,
                                "type": 1,
                                "x": 64.609999999999999,
                                "y": 12.949999999999999
                            },
                            {
                                "id": 24031,
                                "js": 90,
                                "type": 2,
                                "x": 51.869999999999997,
                                "y": 42.009999999999998
                            }
                        ],
                        "val": 8
                    },
                    {
                        "players": [
                            {
                                "id": 24029,
                                "js": 1,
                                "type": 3,
                                "x": 5.1600000000000001,
                                "y": 33.340000000000003
                            },
                            {
                                "id": 23983,
                                "js": 2,
                                "type": 0,
                                "x": 32.140000000000001,
                                "y": 25.399999999999999
                            },
                            {
                                "id": 23909,
                                "js": 5,
                                "type": 0,
                                "x": 44.93,
                                "y": 26.82
                            },
                            {
                                "id": 23999,
                                "js": 7,
                                "type": 0,
                                "x": 41.799999999999997,
                                "y": 10.66
                            },
                            {
                                "id": 24026,
                                "js": 9,
                                "type": 0,
                                "x": 55.649999999999999,
                                "y": 27.34
                            },
                            {
                                "id": 24027,
                                "js": 77,
                                "type": 0,
                                "x": 35.689999999999998,
                                "y": 57.030000000000001
                            },
                            {
                                "id": 23985,
                                "js": 16,
                                "type": 0,
                                "x": 53.200000000000003,
                                "y": 39.07
                            },
                            {
                                "id": 23922,
                                "js": 22,
                                "type": 0,
                                "x": 32.68,
                                "y": 36.25
                            },
                            {
                                "id": 23921,
                                "js": 88,
                                "type": 0,
                                "x": 50.039999999999999,
                                "y": 11.09
                            },
                            {
                                "id": 23730,
                                "js": 25,
                                "type": 0,
                                "x": 45.100000000000001,
                                "y": 34.060000000000002
                            },
                            {
                                "id": 24036,
                                "js": 29,
                                "type": 0,
                                "x": 54.890000000000001,
                                "y": 51.200000000000003
                            },
                            {
                                "id": 23920,
                                "js": 3,
                                "type": 1,
                                "x": 64.159999999999997,
                                "y": 33.369999999999997
                            },
                            {
                                "id": 24040,
                                "js": 6,
                                "type": 1,
                                "x": 55.770000000000003,
                                "y": 24.73
                            },
                            {
                                "id": 23927,
                                "js": 8,
                                "type": 1,
                                "x": 49.859999999999999,
                                "y": 32.259999999999998
                            },
                            {
                                "id": 23919,
                                "js": 11,
                                "type": 1,
                                "x": 50.82,
                                "y": 38.229999999999997
                            },
                            {
                                "id": 24033,
                                "js": 13,
                                "type": 1,
                                "x": 64.620000000000005,
                                "y": 55.420000000000002
                            },
                            {
                                "id": 23990,
                                "js": 17,
                                "type": 1,
                                "x": 51.329999999999998,
                                "y": 63.509999999999998
                            },
                            {
                                "id": 24007,
                                "js": 67,
                                "type": 4,
                                "x": 96.859999999999999,
                                "y": 32.68
                            },
                            {
                                "id": 23932,
                                "js": 20,
                                "type": 1,
                                "x": 53.729999999999997,
                                "y": 8.3800000000000008
                            },
                            {
                                "id": 24038,
                                "js": 26,
                                "type": 1,
                                "x": 70.109999999999999,
                                "y": 41.950000000000003
                            },
                            {
                                "id": 23976,
                                "js": 27,
                                "type": 1,
                                "x": 63.490000000000002,
                                "y": 12.4
                            },
                            {
                                "id": 24031,
                                "js": 90,
                                "type": 2,
                                "x": 53.780000000000001,
                                "y": 42.729999999999997
                            },
                            {
                                "id": 24043,
                                "js": -1,
                                "type": 2,
                                "x": 69.230000000000004,
                                "y": 31.690000000000001
                            }
                        ],
                        "val": 0
                    }
                ]
            }
        },
        "TimeUnit": "millisecond"
    }
}