Q #	overal_risk	gain	pass_advantages	goal_chance	desicionTime	effectiveness_score
010a	0.09102882004050973	2.3999021499880726	32.39059722787393	0.7717906106925272	0.2791278991814178	35.84141788773595
010b	0.00827452155826226	0.0	32.39059722787393	0.3894948540572093	0.23126226214002907	33.01135434407117
010c	1.0082745215582622	0.0	32.39059722787393	0.3894948540572093	0.09885205895675682	32.8789441408879
011a	3.016730701109022	0.0	35.089813663530094	0.22107408254437788	0.08621886521303909	35.39710661128751
011b	0.6600497742899443	0.0	35.089813663530094	0.13459131450214648	0.10202273064931427	35.32642770868156
011c	2.0	2.3999021499880726	32.39059722787393	0.2249891363353402	0.11718089743986382	35.13266941163721
Q01a	3.62442664196118	16.79931504991651	21.59373148524929	0.5087426474460488	0.054560295498691326	38.95634947811053
Q01b	1.0	4.799804299976145	40.48824653484242	0.4534744817399015	0.09853812125606523	45.84006343781453
Q01c	0.11619753490104182	11.999510749940363	32.39059722787393	0.25063035828884855	0.19040596421061273	44.83114430031376
Q02a	0.0	16.79931504991651	21.59373148524929	1.0111893753198544	0.054560295498691326	39.458796205984335
Q02b	0.0	4.799804299976145	40.48824653484242	0.5307319987839202	0.09853812125606523	45.917320954858546
Q02c	0.0	11.999510749940363	32.39059722787393	0.5012607165776971	0.19040596421061273	45.081774658602605
Q03a	1.0	4.799804299976145	29.69138079221777	0.39059470128010043	0.09510790644725879	34.97688769992128
Q03b	0.012302787541894875	-2.3999021499880726	37.78903009918625	0.29351347314740517	0.18843943541740754	35.87108085776299
Q03c	2.5097368683978676	4.799804299976145	29.69138079221777	1.1762031888902436	0.5856026142234986	36.252990895307654
Q04a	0.0	4.799804299976145	29.69138079221777	0.7811894025602009	0.09510790644725879	35.36748240120138
Q04b	0.0	-2.3999021499880726	37.78903009918625	0.7029745922263703	0.18843943541740754	36.28054197684195
Q04c	0.0	4.799804299976145	29.69138079221777	1.1762031888902436	0.5856026142234986	36.252990895307654
Q05a	0.0	14.399412899928436	29.69138079221777	1.7053901055969956	0.4478122846200731	46.243996082363275
Q05b	0.0	16.79931504991651	26.99216435656161	3.7634201569155543	1164.4461599692572	1212.001059532651
Q05c	0.0	7.199706449964218	37.78903009918625	1.1619757622924447	0.29623491388411677	46.44694722532702
Q06a	0.0	-7.199706449964218	53.98432871312322	0.10791523944439647	0.15230597986011668	47.04484348246351
Q06b	0.0	-7.199706449964218	53.98432871312322	0.038082532846668585	0.1938418752305347	47.0165466712362
Q06c	0.13670672225401237	-7.199706449964218	53.98432871312322	0.03120044290435412	0.13362261373308015	46.94944531979644
Q07a	0.0	4.799804299976145	29.69138079221777	0.4360420322004893	0.2238321285523704	35.15105925294678
Q07b	0.0	7.199706449964218	24.292947920905448	0.6929750436902568	0.09294578919426709	32.27857520375419
Q07c	0.0	0.0	35.089813663530094	0.3569224267005151	0.24379810506446697	35.69053419529507
Q08a	0.08878080238335286	14.399412899928436	75.57806019837251	0.7752176658748219	0.2766127053126286	91.02930346948838
Q08b	0.025799976384460976	14.399412899928436	80.97649306968484	0.6098839680109245	0.25014943582778515	96.23593937345197
Q08c	1.313251042262732	14.399412899928436	64.78119445574787	0.769986223517021	0.2601853278308627	80.21077890702418
Q09a	0.0	-14.399412899928436	35.089813663530094	0.24104966134973574	0.0	20.931450424951393
Q09b	0.0	-16.79931504991651	35.089813663530094	0.22921940650280456	0.0	18.51971802011639
Q09c	0.0	-16.79931504991651	40.48824653484242	0.1980235207099034	0.0	23.886955005635812
Q12a	1.512616147578953	7.199706449964218	40.48824653484242	0.26991838948538105	0.12062782597770057	48.07849920026972
Q12b	1.9233948245637937	7.199706449964218	40.48824653484242	0.11061743866081002	0.039221258212445535	47.83779168167989
Q12c	0.11619753490104182	11.999510749940363	32.39059722787393	0.25063035828884855	0.19040596421061273	44.83114430031376
